<?xml version="1.0" encoding="UTF-8" standalone="no"?>
<!-- Created with Inkscape (http://www.inkscape.org/) -->

<svg
   xmlns:dc="http://purl.org/dc/elements/1.1/"
   xmlns:cc="http://creativecommons.org/ns#"
   xmlns:rdf="http://www.w3.org/1999/02/22-rdf-syntax-ns#"
   xmlns:svg="http://www.w3.org/2000/svg"
   xmlns="http://www.w3.org/2000/svg"
   xmlns:xlink="http://www.w3.org/1999/xlink"
   xmlns:sodipodi="http://sodipodi.sourceforge.net/DTD/sodipodi-0.dtd"
   xmlns:inkscape="http://www.inkscape.org/namespaces/inkscape"
   width="425.3631mm"
   height="136.99448mm"
   viewBox="0 0 425.3631 136.99448"
   version="1.1"
   id="svg8"
   inkscape:version="0.92.3 (2405546, 2018-03-11)"
   sodipodi:docname="naive_StarPU.svg">
  <defs
     id="defs2">
    <marker
       inkscape:isstock="true"
       style="overflow:visible"
       id="marker5730"
       refX="0"
       refY="0"
       orient="auto"
       inkscape:stockid="Arrow1Send">
      <path
         inkscape:connector-curvature="0"
         transform="matrix(-0.2,0,0,-0.2,-1.2,0)"
         style="fill:#000000;fill-opacity:1;fill-rule:evenodd;stroke:#000000;stroke-width:1.00000003pt;stroke-opacity:1"
         d="M 0,0 5,-5 -12.5,0 5,5 Z"
         id="path5728" />
    </marker>
    <marker
       inkscape:stockid="Arrow1Send"
       orient="auto"
       refY="0"
       refX="0"
       id="marker5276"
       style="overflow:visible"
       inkscape:isstock="true">
      <path
         id="path5274"
         d="M 0,0 5,-5 -12.5,0 5,5 Z"
         style="fill:#000000;fill-opacity:1;fill-rule:evenodd;stroke:#000000;stroke-width:1.00000003pt;stroke-opacity:1"
         transform="matrix(-0.2,0,0,-0.2,-1.2,0)"
         inkscape:connector-curvature="0" />
    </marker>
    <marker
       inkscape:stockid="Arrow1Send"
       orient="auto"
       refY="0"
       refX="0"
       id="marker5196"
       style="overflow:visible"
       inkscape:isstock="true"
       inkscape:collect="always">
      <path
         id="path5194"
         d="M 0,0 5,-5 -12.5,0 5,5 Z"
         style="fill:#000000;fill-opacity:1;fill-rule:evenodd;stroke:#000000;stroke-width:1.00000003pt;stroke-opacity:1"
         transform="matrix(-0.2,0,0,-0.2,-1.2,0)"
         inkscape:connector-curvature="0" />
    </marker>
    <marker
       inkscape:isstock="true"
       style="overflow:visible"
       id="marker4789"
       refX="0"
       refY="0"
       orient="auto"
       inkscape:stockid="Arrow1Send"
       inkscape:collect="always">
      <path
         inkscape:connector-curvature="0"
         transform="matrix(-0.2,0,0,-0.2,-1.2,0)"
         style="fill:#000000;fill-opacity:1;fill-rule:evenodd;stroke:#000000;stroke-width:1.00000003pt;stroke-opacity:1"
         d="M 0,0 5,-5 -12.5,0 5,5 Z"
         id="path4787" />
    </marker>
    <marker
       inkscape:isstock="true"
       style="overflow:visible"
       id="marker4699"
       refX="0"
       refY="0"
       orient="auto"
       inkscape:stockid="Arrow1Send"
       inkscape:collect="always">
      <path
         inkscape:connector-curvature="0"
         transform="matrix(-0.2,0,0,-0.2,-1.2,0)"
         style="fill:#000000;fill-opacity:1;fill-rule:evenodd;stroke:#000000;stroke-width:1.00000003pt;stroke-opacity:1"
         d="M 0,0 5,-5 -12.5,0 5,5 Z"
         id="path4697" />
    </marker>
    <marker
       inkscape:stockid="Arrow1Send"
       orient="auto"
       refY="0"
       refX="0"
       id="marker3553"
       style="overflow:visible"
       inkscape:isstock="true"
       inkscape:collect="always">
      <path
         id="path3551"
         d="M 0,0 5,-5 -12.5,0 5,5 Z"
         style="fill:#000000;fill-opacity:1;fill-rule:evenodd;stroke:#000000;stroke-width:1.00000003pt;stroke-opacity:1"
         transform="matrix(-0.2,0,0,-0.2,-1.2,0)"
         inkscape:connector-curvature="0" />
    </marker>
    <marker
       inkscape:stockid="Arrow1Send"
       orient="auto"
       refY="0"
       refX="0"
       id="Arrow1Send"
       style="overflow:visible"
       inkscape:isstock="true"
       inkscape:collect="always">
      <path
         id="path2500"
         d="M 0,0 5,-5 -12.5,0 5,5 Z"
         style="fill:#000000;fill-opacity:1;fill-rule:evenodd;stroke:#000000;stroke-width:1.00000003pt;stroke-opacity:1"
         transform="matrix(-0.2,0,0,-0.2,-1.2,0)"
         inkscape:connector-curvature="0" />
    </marker>
    <marker
       inkscape:stockid="Arrow1Mend"
       orient="auto"
       refY="0"
       refX="0"
       id="Arrow1Mend"
       style="overflow:visible"
       inkscape:isstock="true">
      <path
         id="path2494"
         d="M 0,0 5,-5 -12.5,0 5,5 Z"
         style="fill:#000000;fill-opacity:1;fill-rule:evenodd;stroke:#000000;stroke-width:1.00000003pt;stroke-opacity:1"
         transform="matrix(-0.4,0,0,-0.4,-4,0)"
         inkscape:connector-curvature="0" />
    </marker>
    <linearGradient
       id="linearGradient941"
       inkscape:collect="always">
      <stop
         id="stop937"
         offset="0"
         style="stop-color:#637343;stop-opacity:1" />
      <stop
         id="stop939"
         offset="1"
         style="stop-color:#9bad79;stop-opacity:1" />
    </linearGradient>
    <linearGradient
       id="linearGradient971"
       inkscape:collect="always">
      <stop
         id="stop967"
         offset="0"
         style="stop-color:#f2cd5c;stop-opacity:1" />
      <stop
         id="stop969"
         offset="1"
         style="stop-color:#fbe6b7;stop-opacity:1" />
    </linearGradient>
    <linearGradient
       inkscape:collect="always"
       xlink:href="#linearGradient941"
       id="linearGradient3636"
       gradientUnits="userSpaceOnUse"
       gradientTransform="matrix(2.5811408,0,0,5.8792655,-58.274897,-399.56183)"
       x1="12.189733"
       y1="104.61012"
       x2="22.962053"
       y2="109.05134" />
    <linearGradient
       inkscape:collect="always"
       xlink:href="#linearGradient971"
       id="linearGradient3638"
       gradientUnits="userSpaceOnUse"
       gradientTransform="matrix(2.5811409,0,0,5.8792649,-58.72254,-321.73698)"
       x1="12.189733"
       y1="104.61012"
       x2="22.962053"
       y2="109.05134" />
    <filter
       inkscape:collect="always"
       style="color-interpolation-filters:sRGB"
       id="filter3656"
       x="-0.0405"
       width="1.081"
       y="-0.032400001"
       height="1.0648">
      <feGaussianBlur
         inkscape:collect="always"
         stdDeviation="0.675"
         id="feGaussianBlur3658" />
    </filter>
    <linearGradient
       inkscape:collect="always"
       xlink:href="#linearGradient941"
       id="linearGradient3670"
       gradientUnits="userSpaceOnUse"
       gradientTransform="matrix(2.5811408,0,0,5.8792655,-58.274897,-399.56183)"
       x1="12.189733"
       y1="104.61012"
       x2="22.962053"
       y2="109.05134" />
    <linearGradient
       inkscape:collect="always"
       xlink:href="#linearGradient941"
       id="linearGradient3678"
       gradientUnits="userSpaceOnUse"
       gradientTransform="matrix(2.5811408,0,0,5.8792655,-58.274897,-399.56183)"
       x1="12.189733"
       y1="104.61012"
       x2="22.962053"
       y2="109.05134" />
    <linearGradient
       inkscape:collect="always"
       xlink:href="#linearGradient941"
       id="linearGradient3686"
       gradientUnits="userSpaceOnUse"
       gradientTransform="matrix(2.5811408,0,0,5.8792655,-58.274897,-399.56183)"
       x1="12.189733"
       y1="104.61012"
       x2="22.962053"
       y2="109.05134" />
    <linearGradient
       inkscape:collect="always"
       xlink:href="#linearGradient941"
       id="linearGradient3712"
       gradientUnits="userSpaceOnUse"
       gradientTransform="matrix(2.5811408,0,0,5.8792655,-58.274897,-399.56183)"
       x1="12.189733"
       y1="104.61012"
       x2="22.962053"
       y2="109.05134" />
    <linearGradient
       inkscape:collect="always"
       xlink:href="#linearGradient941"
       id="linearGradient3714"
       gradientUnits="userSpaceOnUse"
       gradientTransform="matrix(2.5811408,0,0,5.8792655,-58.274897,-399.56183)"
       x1="12.189733"
       y1="104.61012"
       x2="22.962053"
       y2="109.05134" />
    <linearGradient
       inkscape:collect="always"
       xlink:href="#linearGradient941"
       id="linearGradient3716"
       gradientUnits="userSpaceOnUse"
       gradientTransform="matrix(2.5811408,0,0,5.8792655,-58.274897,-399.56183)"
       x1="12.189733"
       y1="104.61012"
       x2="22.962053"
       y2="109.05134" />
    <linearGradient
       inkscape:collect="always"
       xlink:href="#linearGradient941"
       id="linearGradient3718"
       gradientUnits="userSpaceOnUse"
       gradientTransform="matrix(2.5811408,0,0,5.8792655,-58.274897,-399.56183)"
       x1="12.189733"
       y1="104.61012"
       x2="22.962053"
       y2="109.05134" />
    <filter
       inkscape:collect="always"
       style="color-interpolation-filters:sRGB"
       id="filter3732"
       x="-0.0405"
       width="1.081"
       y="-0.032400001"
       height="1.0648">
      <feGaussianBlur
         inkscape:collect="always"
         stdDeviation="0.675"
         id="feGaussianBlur3734" />
    </filter>
    <linearGradient
       inkscape:collect="always"
       xlink:href="#linearGradient971"
       id="linearGradient3746"
       gradientUnits="userSpaceOnUse"
       gradientTransform="matrix(2.5811409,0,0,5.8792649,-58.72254,-321.73698)"
       x1="12.189733"
       y1="104.61012"
       x2="22.962053"
       y2="109.05134" />
    <linearGradient
       inkscape:collect="always"
       xlink:href="#linearGradient971"
       id="linearGradient3754"
       gradientUnits="userSpaceOnUse"
       gradientTransform="matrix(2.5811409,0,0,5.8792649,-58.72254,-321.73698)"
       x1="12.189733"
       y1="104.61012"
       x2="22.962053"
       y2="109.05134" />
    <linearGradient
       inkscape:collect="always"
       xlink:href="#linearGradient971"
       id="linearGradient3762"
       gradientUnits="userSpaceOnUse"
       gradientTransform="matrix(2.5811409,0,0,5.8792649,-58.72254,-321.73698)"
       x1="12.189733"
       y1="104.61012"
       x2="22.962053"
       y2="109.05134" />
    <linearGradient
       inkscape:collect="always"
       xlink:href="#linearGradient971"
       id="linearGradient3788"
       gradientUnits="userSpaceOnUse"
       gradientTransform="matrix(2.5811409,0,0,5.8792649,-58.72254,-321.73698)"
       x1="12.189733"
       y1="104.61012"
       x2="22.962053"
       y2="109.05134" />
    <linearGradient
       inkscape:collect="always"
       xlink:href="#linearGradient971"
       id="linearGradient3790"
       gradientUnits="userSpaceOnUse"
       gradientTransform="matrix(2.5811409,0,0,5.8792649,-58.72254,-321.73698)"
       x1="12.189733"
       y1="104.61012"
       x2="22.962053"
       y2="109.05134" />
    <linearGradient
       inkscape:collect="always"
       xlink:href="#linearGradient971"
       id="linearGradient3792"
       gradientUnits="userSpaceOnUse"
       gradientTransform="matrix(2.5811409,0,0,5.8792649,-58.72254,-321.73698)"
       x1="12.189733"
       y1="104.61012"
       x2="22.962053"
       y2="109.05134" />
    <linearGradient
       inkscape:collect="always"
       xlink:href="#linearGradient971"
       id="linearGradient3794"
       gradientUnits="userSpaceOnUse"
       gradientTransform="matrix(2.5811409,0,0,5.8792649,-58.72254,-321.73698)"
       x1="12.189733"
       y1="104.61012"
       x2="22.962053"
       y2="109.05134" />
  </defs>
  <sodipodi:namedview
     id="base"
     pagecolor="#ffffff"
     bordercolor="#666666"
     borderopacity="1.0"
     inkscape:pageopacity="0.0"
     inkscape:pageshadow="2"
     inkscape:zoom="0.49497475"
     inkscape:cx="636.20048"
     inkscape:cy="-22.74647"
     inkscape:document-units="mm"
     inkscape:current-layer="layer1"
     showgrid="false"
     inkscape:snap-global="false"
     inkscape:window-width="1920"
     inkscape:window-height="1022"
     inkscape:window-x="0"
     inkscape:window-y="28"
     inkscape:window-maximized="1"
     fit-margin-top="3"
     fit-margin-left="3"
     fit-margin-right="3"
     fit-margin-bottom="3" />
  <metadata
     id="metadata5">
    <rdf:RDF>
      <cc:Work
         rdf:about="">
        <dc:format>image/svg+xml</dc:format>
        <dc:type
           rdf:resource="http://purl.org/dc/dcmitype/StillImage" />
        <dc:title></dc:title>
      </cc:Work>
    </rdf:RDF>
  </metadata>
  <g
     inkscape:label="Calque 1"
     inkscape:groupmode="layer"
     id="layer1"
     transform="translate(64.784891,-195.80225)">
    <text
       xml:space="preserve"
       style="font-style:normal;font-variant:normal;font-weight:normal;font-stretch:normal;font-size:25.39999962px;line-height:1.25;font-family:Maitree;-inkscape-font-specification:Maitree;letter-spacing:0px;word-spacing:0px;fill:#000000;fill-opacity:1;stroke:none;stroke-width:0.26458332"
       x="-61.988091"
       y="234.49709"
       id="text2461"><tspan
         sodipodi:role="line"
         id="tspan2459"
         x="-61.988091"
         y="234.49709"
         style="stroke-width:0.26458332">A</tspan></text>
    <text
       xml:space="preserve"
       style="font-style:normal;font-variant:normal;font-weight:normal;font-stretch:normal;font-size:25.39999962px;line-height:1.25;font-family:Maitree;-inkscape-font-specification:Maitree;letter-spacing:0px;word-spacing:0px;fill:#000000;fill-opacity:1;stroke:none;stroke-width:0.26458332"
       x="-61.645191"
       y="312.00323"
       id="text2465"><tspan
         sodipodi:role="line"
         id="tspan2463"
         x="-61.645191"
         y="312.00323"
         style="stroke-width:0.26458332">B</tspan></text>
    <g
       id="g3662">
      <rect
         style="opacity:0.6;fill:#444f2e;fill-opacity:1;stroke:none;stroke-width:3.89553738;stroke-miterlimit:4;stroke-dasharray:none;stroke-opacity:1;filter:url(#filter3656)"
         id="rect3644"
         width="40"
         height="50"
         x="-32.747162"
         y="200.91891" />
      <rect
         y="198.80225"
         x="-34.372459"
         height="50"
         width="40"
         id="rect3626"
         style="opacity:1;fill:url(#linearGradient3636);fill-opacity:1;stroke:none;stroke-width:3.89553738;stroke-miterlimit:4;stroke-dasharray:none;stroke-opacity:1" />
    </g>
    <g
       id="g3738"
       transform="translate(0.44764013)">
      <rect
         y="278.17673"
         x="-33.081409"
         height="50"
         width="40"
         id="rect3720"
         style="opacity:0.6;fill:#93720c;fill-opacity:1;stroke:none;stroke-width:3.89553738;stroke-miterlimit:4;stroke-dasharray:none;stroke-opacity:1;filter:url(#filter3732)" />
      <rect
         style="opacity:1;fill:url(#linearGradient3638);fill-opacity:1;stroke:none;stroke-width:3.89553738;stroke-miterlimit:4;stroke-dasharray:none;stroke-opacity:1"
         id="rect3632"
         width="40"
         height="50"
         x="-34.820099"
         y="276.62704" />
    </g>
    <g
       id="g3668"
       transform="translate(49.798855)">
      <rect
         y="200.91891"
         x="-32.747162"
         height="50"
         width="40"
         id="rect3664"
         style="opacity:0.6;fill:#444f2e;fill-opacity:1;stroke:none;stroke-width:3.89553738;stroke-miterlimit:4;stroke-dasharray:none;stroke-opacity:1;filter:url(#filter3656)" />
      <rect
         style="opacity:1;fill:url(#linearGradient3670);fill-opacity:1;stroke:none;stroke-width:3.89553738;stroke-miterlimit:4;stroke-dasharray:none;stroke-opacity:1"
         id="rect3666"
         width="40"
         height="50"
         x="-34.372459"
         y="198.80225" />
    </g>
    <g
       transform="translate(99.597704)"
       id="g3676">
      <rect
         style="opacity:0.6;fill:#444f2e;fill-opacity:1;stroke:none;stroke-width:3.89553738;stroke-miterlimit:4;stroke-dasharray:none;stroke-opacity:1;filter:url(#filter3656)"
         id="rect3672"
         width="40"
         height="50"
         x="-32.747162"
         y="200.91891" />
      <rect
         y="198.80225"
         x="-34.372459"
         height="50"
         width="40"
         id="rect3674"
         style="opacity:1;fill:url(#linearGradient3678);fill-opacity:1;stroke:none;stroke-width:3.89553738;stroke-miterlimit:4;stroke-dasharray:none;stroke-opacity:1" />
    </g>
    <g
       id="g3684"
       transform="translate(149.39655)">
      <rect
         y="200.91891"
         x="-32.747162"
         height="50"
         width="40"
         id="rect3680"
         style="opacity:0.6;fill:#444f2e;fill-opacity:1;stroke:none;stroke-width:3.89553738;stroke-miterlimit:4;stroke-dasharray:none;stroke-opacity:1;filter:url(#filter3656)" />
      <rect
         style="opacity:1;fill:url(#linearGradient3686);fill-opacity:1;stroke:none;stroke-width:3.89553738;stroke-miterlimit:4;stroke-dasharray:none;stroke-opacity:1"
         id="rect3682"
         width="40"
         height="50"
         x="-34.372459"
         y="198.80225" />
    </g>
    <g
       id="g3692"
       transform="translate(199.1954)">
      <rect
         y="200.91891"
         x="-32.747162"
         height="50"
         width="40"
         id="rect3688"
         style="opacity:0.6;fill:#444f2e;fill-opacity:1;stroke:none;stroke-width:3.89553738;stroke-miterlimit:4;stroke-dasharray:none;stroke-opacity:1;filter:url(#filter3656)" />
      <rect
         style="opacity:1;fill:url(#linearGradient3712);fill-opacity:1;stroke:none;stroke-width:3.89553738;stroke-miterlimit:4;stroke-dasharray:none;stroke-opacity:1"
         id="rect3690"
         width="40"
         height="50"
         x="-34.372459"
         y="198.80225" />
    </g>
    <g
       transform="translate(248.99425)"
       id="g3698">
      <rect
         style="opacity:0.6;fill:#444f2e;fill-opacity:1;stroke:none;stroke-width:3.89553738;stroke-miterlimit:4;stroke-dasharray:none;stroke-opacity:1;filter:url(#filter3656)"
         id="rect3694"
         width="40"
         height="50"
         x="-32.747162"
         y="200.91891" />
      <rect
         y="198.80225"
         x="-34.372459"
         height="50"
         width="40"
         id="rect3696"
         style="opacity:1;fill:url(#linearGradient3714);fill-opacity:1;stroke:none;stroke-width:3.89553738;stroke-miterlimit:4;stroke-dasharray:none;stroke-opacity:1" />
    </g>
    <g
       id="g3704"
       transform="translate(298.79309)">
      <rect
         y="200.91891"
         x="-32.747162"
         height="50"
         width="40"
         id="rect3700"
         style="opacity:0.6;fill:#444f2e;fill-opacity:1;stroke:none;stroke-width:3.89553738;stroke-miterlimit:4;stroke-dasharray:none;stroke-opacity:1;filter:url(#filter3656)" />
      <rect
         style="opacity:1;fill:url(#linearGradient3716);fill-opacity:1;stroke:none;stroke-width:3.89553738;stroke-miterlimit:4;stroke-dasharray:none;stroke-opacity:1"
         id="rect3702"
         width="40"
         height="50"
         x="-34.372459"
         y="198.80225" />
    </g>
    <g
       transform="translate(348.59192)"
       id="g3710">
      <rect
         style="opacity:0.6;fill:#444f2e;fill-opacity:1;stroke:none;stroke-width:3.89553738;stroke-miterlimit:4;stroke-dasharray:none;stroke-opacity:1;filter:url(#filter3656)"
         id="rect3706"
         width="40"
         height="50"
         x="-32.747162"
         y="200.91891" />
      <rect
         y="198.80225"
         x="-34.372459"
         height="50"
         width="40"
         id="rect3708"
         style="opacity:1;fill:url(#linearGradient3718);fill-opacity:1;stroke:none;stroke-width:3.89553738;stroke-miterlimit:4;stroke-dasharray:none;stroke-opacity:1" />
    </g>
    <g
       id="g3744"
       transform="translate(50.246486)">
      <rect
         style="opacity:0.6;fill:#93720c;fill-opacity:1;stroke:none;stroke-width:3.89553738;stroke-miterlimit:4;stroke-dasharray:none;stroke-opacity:1;filter:url(#filter3732)"
         id="rect3740"
         width="40"
         height="50"
         x="-33.081409"
         y="278.17673" />
      <rect
         y="276.62704"
         x="-34.820099"
         height="50"
         width="40"
         id="rect3742"
         style="opacity:1;fill:url(#linearGradient3746);fill-opacity:1;stroke:none;stroke-width:3.89553738;stroke-miterlimit:4;stroke-dasharray:none;stroke-opacity:1" />
    </g>
    <g
       transform="translate(100.04534)"
       id="g3752">
      <rect
         y="278.17673"
         x="-33.081409"
         height="50"
         width="40"
         id="rect3748"
         style="opacity:0.6;fill:#93720c;fill-opacity:1;stroke:none;stroke-width:3.89553738;stroke-miterlimit:4;stroke-dasharray:none;stroke-opacity:1;filter:url(#filter3732)" />
      <rect
         style="opacity:1;fill:url(#linearGradient3754);fill-opacity:1;stroke:none;stroke-width:3.89553738;stroke-miterlimit:4;stroke-dasharray:none;stroke-opacity:1"
         id="rect3750"
         width="40"
         height="50"
         x="-34.820099"
         y="276.62704" />
    </g>
    <g
       id="g3760"
       transform="translate(149.84418)">
      <rect
         style="opacity:0.6;fill:#93720c;fill-opacity:1;stroke:none;stroke-width:3.89553738;stroke-miterlimit:4;stroke-dasharray:none;stroke-opacity:1;filter:url(#filter3732)"
         id="rect3756"
         width="40"
         height="50"
         x="-33.081409"
         y="278.17673" />
      <rect
         y="276.62704"
         x="-34.820099"
         height="50"
         width="40"
         id="rect3758"
         style="opacity:1;fill:url(#linearGradient3762);fill-opacity:1;stroke:none;stroke-width:3.89553738;stroke-miterlimit:4;stroke-dasharray:none;stroke-opacity:1" />
    </g>
    <g
       id="g3768"
       transform="translate(199.64303)">
      <rect
         style="opacity:0.6;fill:#93720c;fill-opacity:1;stroke:none;stroke-width:3.89553738;stroke-miterlimit:4;stroke-dasharray:none;stroke-opacity:1;filter:url(#filter3732)"
         id="rect3764"
         width="40"
         height="50"
         x="-33.081409"
         y="278.17673" />
      <rect
         y="276.62704"
         x="-34.820099"
         height="50"
         width="40"
         id="rect3766"
         style="opacity:1;fill:url(#linearGradient3788);fill-opacity:1;stroke:none;stroke-width:3.89553738;stroke-miterlimit:4;stroke-dasharray:none;stroke-opacity:1" />
    </g>
    <g
       transform="translate(249.44189)"
       id="g3774">
      <rect
         y="278.17673"
         x="-33.081409"
         height="50"
         width="40"
         id="rect3770"
         style="opacity:0.6;fill:#93720c;fill-opacity:1;stroke:none;stroke-width:3.89553738;stroke-miterlimit:4;stroke-dasharray:none;stroke-opacity:1;filter:url(#filter3732)" />
      <rect
         style="opacity:1;fill:url(#linearGradient3790);fill-opacity:1;stroke:none;stroke-width:3.89553738;stroke-miterlimit:4;stroke-dasharray:none;stroke-opacity:1"
         id="rect3772"
         width="40"
         height="50"
         x="-34.820099"
         y="276.62704" />
    </g>
    <g
       id="g3780"
       transform="translate(299.24076)">
      <rect
         style="opacity:0.6;fill:#93720c;fill-opacity:1;stroke:none;stroke-width:3.89553738;stroke-miterlimit:4;stroke-dasharray:none;stroke-opacity:1;filter:url(#filter3732)"
         id="rect3776"
         width="40"
         height="50"
         x="-33.081409"
         y="278.17673" />
      <rect
         y="276.62704"
         x="-34.820099"
         height="50"
         width="40"
         id="rect3778"
         style="opacity:1;fill:url(#linearGradient3792);fill-opacity:1;stroke:none;stroke-width:3.89553738;stroke-miterlimit:4;stroke-dasharray:none;stroke-opacity:1" />
    </g>
    <g
       transform="translate(349.03963)"
       id="g3786">
      <rect
         y="278.17673"
         x="-33.081409"
         height="50"
         width="40"
         id="rect3782"
         style="opacity:0.6;fill:#93720c;fill-opacity:1;stroke:none;stroke-width:3.89553738;stroke-miterlimit:4;stroke-dasharray:none;stroke-opacity:1;filter:url(#filter3732)" />
      <rect
         style="opacity:1;fill:url(#linearGradient3794);fill-opacity:1;stroke:none;stroke-width:3.89553738;stroke-miterlimit:4;stroke-dasharray:none;stroke-opacity:1"
         id="rect3784"
         width="40"
         height="50"
         x="-34.820099"
         y="276.62704" />
    </g>
    <g
       id="g3799"
       transform="translate(0.5345375)">
      <path
         inkscape:connector-curvature="0"
         id="path2475"
         d="m 34.546378,198.83243 v 50"
         style="fill:none;stroke:#000000;stroke-width:1.36099994;stroke-linecap:butt;stroke-linejoin:miter;stroke-miterlimit:4;stroke-dasharray:5.44399961, 1.3609999;stroke-dashoffset:0;stroke-opacity:1" />
      <path
         style="fill:none;stroke:#000000;stroke-width:1.36099994;stroke-linecap:butt;stroke-linejoin:miter;stroke-miterlimit:4;stroke-dasharray:5.44399961, 1.3609999;stroke-dashoffset:0;stroke-opacity:1"
         d="m 25.985144,198.83243 v 50"
         id="path2477"
         inkscape:connector-curvature="0" />
      <path
         inkscape:connector-curvature="0"
         id="path2479"
         d="m 43.107613,198.83243 v 50"
         style="fill:none;stroke:#000000;stroke-width:1.36099994;stroke-linecap:butt;stroke-linejoin:miter;stroke-miterlimit:4;stroke-dasharray:5.44399961, 1.3609999;stroke-dashoffset:0;stroke-opacity:1" />
    </g>
    <path
       inkscape:connector-curvature="0"
       id="path2481"
       d="m 35.080916,276.63652 v 50"
       style="fill:none;stroke:#000000;stroke-width:1.36099994;stroke-linecap:butt;stroke-linejoin:miter;stroke-miterlimit:4;stroke-dasharray:none;stroke-dashoffset:0;stroke-opacity:1" />
    <g
       id="g4756"
       transform="translate(0,1.3363476)">
      <path
         sodipodi:nodetypes="cc"
         inkscape:connector-curvature="0"
         id="path2483"
         d="m 35.080916,252.82402 v 16.17113"
         style="fill:none;stroke:#000000;stroke-width:0.66100001;stroke-linecap:butt;stroke-linejoin:miter;stroke-miterlimit:4;stroke-dasharray:none;stroke-dashoffset:0;stroke-opacity:1;marker-end:url(#Arrow1Send)" />
      <path
         sodipodi:nodetypes="cc"
         inkscape:connector-curvature="0"
         id="path3549"
         d="m 26.27552,252.82402 5.386163,16.17113"
         style="fill:none;stroke:#000000;stroke-width:0.66100001;stroke-linecap:butt;stroke-linejoin:miter;stroke-miterlimit:4;stroke-dasharray:none;stroke-dashoffset:0;stroke-opacity:1;marker-end:url(#marker3553)" />
      <text
         id="text3599"
         y="257.08356"
         x="29.258739"
         style="font-style:normal;font-variant:normal;font-weight:normal;font-stretch:normal;font-size:6.3499999px;line-height:1.25;font-family:Maitree;-inkscape-font-specification:Maitree;letter-spacing:0px;word-spacing:0px;fill:#000000;fill-opacity:1;stroke:none;stroke-width:0.26458332"
         xml:space="preserve"><tspan
           style="stroke-width:0.26458332"
           y="257.08356"
           x="29.258739"
           id="tspan3597"
           sodipodi:role="line">+</tspan></text>
      <text
         xml:space="preserve"
         style="font-style:normal;font-variant:normal;font-weight:normal;font-stretch:normal;font-size:6.3499999px;line-height:1.25;font-family:Maitree;-inkscape-font-specification:Maitree;letter-spacing:0px;word-spacing:0px;fill:#000000;fill-opacity:1;stroke:none;stroke-width:0.26458332"
         x="37.17907"
         y="257.08356"
         id="text3603"><tspan
           sodipodi:role="line"
           id="tspan3601"
           x="37.17907"
           y="257.08356"
           style="stroke-width:0.26458332">+</tspan></text>
      <path
         style="fill:none;stroke:#000000;stroke-width:0.66100001;stroke-linecap:butt;stroke-linejoin:miter;stroke-miterlimit:4;stroke-dasharray:none;stroke-dashoffset:0;stroke-opacity:1;marker-end:url(#marker4699)"
         d="m 44.009086,252.82402 -5.386163,16.17113"
         id="path4695"
         inkscape:connector-curvature="0"
         sodipodi:nodetypes="cc" />
    </g>
    <path
       inkscape:connector-curvature="0"
       id="path4758"
       d="m 170.43708,198.83243 v 50"
       style="fill:none;stroke:#000000;stroke-width:1.36099994;stroke-linecap:butt;stroke-linejoin:miter;stroke-miterlimit:4;stroke-dasharray:2.7219998, 2.7219998;stroke-dashoffset:0;stroke-opacity:1" />
    <path
       style="fill:none;stroke:#000000;stroke-width:1.36099994;stroke-linecap:butt;stroke-linejoin:miter;stroke-miterlimit:4;stroke-dasharray:2.7219998, 2.7219998;stroke-dashoffset:0;stroke-opacity:1"
       d="m 151.56371,198.83243 v 50"
       id="path4760"
       inkscape:connector-curvature="0" />
    <path
       inkscape:connector-curvature="0"
       id="path4762"
       d="m 178.99831,198.83243 v 50"
       style="fill:none;stroke:#000000;stroke-width:1.36099994;stroke-linecap:butt;stroke-linejoin:miter;stroke-miterlimit:4;stroke-dasharray:2.7219998, 2.7219998;stroke-dashoffset:0;stroke-opacity:1" />
    <path
       style="fill:none;stroke:#000000;stroke-width:1.36099994;stroke-linecap:butt;stroke-linejoin:miter;stroke-miterlimit:4;stroke-dasharray:none;stroke-dashoffset:0;stroke-opacity:1"
       d="m 170.43708,276.63652 v 50"
       id="path4766"
       inkscape:connector-curvature="0" />
    <path
       sodipodi:nodetypes="cc"
       inkscape:connector-curvature="0"
       id="path4768"
       d="M 170.43708,254.16037 V 270.3315"
       style="fill:none;stroke:#000000;stroke-width:0.66100001;stroke-linecap:butt;stroke-linejoin:miter;stroke-miterlimit:4;stroke-dasharray:none;stroke-dashoffset:0;stroke-opacity:1;marker-end:url(#Arrow1Send)" />
    <path
       sodipodi:nodetypes="cc"
       inkscape:connector-curvature="0"
       id="path4770"
       d="m 151.86359,254.16037 15.15425,16.17113"
       style="fill:none;stroke:#000000;stroke-width:0.66100001;stroke-linecap:butt;stroke-linejoin:miter;stroke-miterlimit:4;stroke-dasharray:none;stroke-dashoffset:0;stroke-opacity:1;marker-end:url(#marker4789)" />
    <text
       id="text4774"
       y="258.41989"
       x="160.47221"
       style="font-style:normal;font-variant:normal;font-weight:normal;font-stretch:normal;font-size:6.3499999px;line-height:1.25;font-family:Maitree;-inkscape-font-specification:Maitree;letter-spacing:0px;word-spacing:0px;fill:#000000;fill-opacity:1;stroke:none;stroke-width:0.26458332"
       xml:space="preserve"><tspan
         style="stroke-width:0.26458332"
         y="258.41989"
         x="160.47221"
         id="tspan4772"
         sodipodi:role="line">+</tspan></text>
    <text
       xml:space="preserve"
       style="font-style:normal;font-variant:normal;font-weight:normal;font-stretch:normal;font-size:6.3499999px;line-height:1.25;font-family:Maitree;-inkscape-font-specification:Maitree;letter-spacing:0px;word-spacing:0px;fill:#000000;fill-opacity:1;stroke:none;stroke-width:0.26458332"
       x="172.53523"
       y="258.41989"
       id="text4778"><tspan
         sodipodi:role="line"
         id="tspan4776"
         x="172.53523"
         y="258.41989"
         style="stroke-width:0.26458332">+</tspan></text>
    <path
       style="fill:none;stroke:#000000;stroke-width:0.66100001;stroke-linecap:butt;stroke-linejoin:miter;stroke-miterlimit:4;stroke-dasharray:none;stroke-dashoffset:0;stroke-opacity:1;marker-end:url(#marker5196)"
       d="m 179.36525,254.16037 -5.38617,16.17113"
       id="path4780"
       inkscape:connector-curvature="0"
       sodipodi:nodetypes="cc" />
    <path
       style="fill:none;stroke:#000000;stroke-width:1.36099994;stroke-linecap:butt;stroke-linejoin:miter;stroke-miterlimit:4;stroke-dasharray:8.16599941, 2.7219998;stroke-dashoffset:0;stroke-opacity:1"
       d="m 200.104,198.83243 v 50"
       id="path5252"
       inkscape:connector-curvature="0" />
    <path
       inkscape:connector-curvature="0"
       id="path5254"
       d="m 192.72322,198.83243 v 50"
       style="fill:none;stroke:#000000;stroke-width:1.36099994;stroke-linecap:butt;stroke-linejoin:miter;stroke-miterlimit:4;stroke-dasharray:8.16599941, 2.7219998;stroke-dashoffset:0;stroke-opacity:1" />
    <path
       style="fill:none;stroke:#000000;stroke-width:1.36099994;stroke-linecap:butt;stroke-linejoin:miter;stroke-miterlimit:4;stroke-dasharray:8.16599941, 2.7219998;stroke-dashoffset:0;stroke-opacity:1"
       d="m 219.22238,198.83243 v 50"
       id="path5256"
       inkscape:connector-curvature="0" />
    <path
       inkscape:connector-curvature="0"
       id="path5258"
       d="m 200.104,276.63652 v 50"
       style="fill:none;stroke:#000000;stroke-width:1.36099994;stroke-linecap:butt;stroke-linejoin:miter;stroke-miterlimit:4;stroke-dasharray:none;stroke-dashoffset:0;stroke-opacity:1" />
    <path
       style="fill:none;stroke:#000000;stroke-width:0.66100001;stroke-linecap:butt;stroke-linejoin:miter;stroke-miterlimit:4;stroke-dasharray:none;stroke-dashoffset:0;stroke-opacity:1;marker-end:url(#Arrow1Send)"
       d="M 200.104,254.16037 V 270.3315"
       id="path5260"
       inkscape:connector-curvature="0"
       sodipodi:nodetypes="cc" />
    <path
       style="fill:none;stroke:#000000;stroke-width:0.66100001;stroke-linecap:butt;stroke-linejoin:miter;stroke-miterlimit:4;stroke-dasharray:none;stroke-dashoffset:0;stroke-opacity:1;marker-end:url(#marker5276)"
       d="M 219.16665,254.16037 204.0124,270.3315"
       id="path5262"
       inkscape:connector-curvature="0"
       sodipodi:nodetypes="cc" />
    <text
       xml:space="preserve"
       style="font-style:normal;font-variant:normal;font-weight:normal;font-stretch:normal;font-size:6.3499999px;line-height:1.25;font-family:Maitree;-inkscape-font-specification:Maitree;letter-spacing:0px;word-spacing:0px;fill:#000000;fill-opacity:1;stroke:none;stroke-width:0.26458332"
       x="193.61363"
       y="258.41989"
       id="text5266"><tspan
         sodipodi:role="line"
         id="tspan5264"
         x="193.61363"
         y="258.41989"
         style="stroke-width:0.26458332">+</tspan></text>
    <text
       id="text5270"
       y="258.41989"
       x="206.07756"
       style="font-style:normal;font-variant:normal;font-weight:normal;font-stretch:normal;font-size:6.3499999px;line-height:1.25;font-family:Maitree;-inkscape-font-specification:Maitree;letter-spacing:0px;word-spacing:0px;fill:#000000;fill-opacity:1;stroke:none;stroke-width:0.26458332"
       xml:space="preserve"><tspan
         style="stroke-width:0.26458332"
         y="258.41989"
         x="206.07756"
         id="tspan5268"
         sodipodi:role="line">+</tspan></text>
    <path
       sodipodi:nodetypes="cc"
       inkscape:connector-curvature="0"
       id="path5272"
       d="m 190.7577,254.16037 5.38617,16.17113"
       style="fill:none;stroke:#000000;stroke-width:0.66100001;stroke-linecap:butt;stroke-linejoin:miter;stroke-miterlimit:4;stroke-dasharray:none;stroke-dashoffset:0;stroke-opacity:1;marker-end:url(#marker5730)" />
    <text
       id="text6214"
       y="186.78825"
       x="-12.749921"
       style="font-style:normal;font-variant:normal;font-weight:normal;font-stretch:normal;font-size:14.11111069px;line-height:1.25;font-family:Maitree;-inkscape-font-specification:Maitree;text-align:center;letter-spacing:0px;word-spacing:0px;text-anchor:middle;fill:#000000;fill-opacity:1;stroke:none;stroke-width:0.26458332"
       xml:space="preserve"><tspan
         style="text-align:center;text-anchor:middle;stroke-width:0.26458332"
         y="186.78825"
         x="-12.749921"
         id="tspan6212"
         sodipodi:role="line">0</tspan></text>
    <text
       xml:space="preserve"
       style="font-style:normal;font-variant:normal;font-weight:normal;font-stretch:normal;font-size:14.11111069px;line-height:1.25;font-family:Maitree;-inkscape-font-specification:Maitree;text-align:center;letter-spacing:0px;word-spacing:0px;text-anchor:middle;fill:#000000;fill-opacity:1;stroke:none;stroke-width:0.26458332"
       x="37.116745"
       y="186.78825"
       id="text6218"><tspan
         sodipodi:role="line"
         id="tspan6216"
         x="37.116745"
         y="186.78825"
         style="text-align:center;text-anchor:middle;stroke-width:0.26458332">1</tspan></text>
    <text
       id="text6222"
       y="186.78825"
       x="86.841408"
       style="font-style:normal;font-variant:normal;font-weight:normal;font-stretch:normal;font-size:14.11111069px;line-height:1.25;font-family:Maitree;-inkscape-font-specification:Maitree;text-align:center;letter-spacing:0px;word-spacing:0px;text-anchor:middle;fill:#000000;fill-opacity:1;stroke:none;stroke-width:0.26458332"
       xml:space="preserve"><tspan
         style="text-align:center;text-anchor:middle;stroke-width:0.26458332"
         y="186.78825"
         x="86.841408"
         id="tspan6220"
         sodipodi:role="line">2</tspan></text>
    <text
       xml:space="preserve"
       style="font-style:normal;font-variant:normal;font-weight:normal;font-stretch:normal;font-size:14.11111069px;line-height:1.25;font-family:Maitree;-inkscape-font-specification:Maitree;text-align:center;letter-spacing:0px;word-spacing:0px;text-anchor:middle;fill:#000000;fill-opacity:1;stroke:none;stroke-width:0.26458332"
       x="136.76022"
       y="186.78825"
       id="text6226"><tspan
         sodipodi:role="line"
         id="tspan6224"
         x="136.76022"
         y="186.78825"
         style="text-align:center;text-anchor:middle;stroke-width:0.26458332">3</tspan></text>
    <text
       id="text6230"
       y="186.78825"
       x="186.58168"
       style="font-style:normal;font-variant:normal;font-weight:normal;font-stretch:normal;font-size:14.11111069px;line-height:1.25;font-family:Maitree;-inkscape-font-specification:Maitree;text-align:center;letter-spacing:0px;word-spacing:0px;text-anchor:middle;fill:#000000;fill-opacity:1;stroke:none;stroke-width:0.26458332"
       xml:space="preserve"><tspan
         style="text-align:center;text-anchor:middle;stroke-width:0.26458332"
         y="186.78825"
         x="186.58168"
         id="tspan6228"
         sodipodi:role="line">4</tspan></text>
    <text
       xml:space="preserve"
       style="font-style:normal;font-variant:normal;font-weight:normal;font-stretch:normal;font-size:14.11111069px;line-height:1.25;font-family:Maitree;-inkscape-font-specification:Maitree;text-align:center;letter-spacing:0px;word-spacing:0px;text-anchor:middle;fill:#000000;fill-opacity:1;stroke:none;stroke-width:0.26458332"
       x="236.25267"
       y="186.78825"
       id="text6234"><tspan
         sodipodi:role="line"
         id="tspan6232"
         x="236.25267"
         y="186.78825"
         style="text-align:center;text-anchor:middle;stroke-width:0.26458332">5</tspan></text>
    <text
       id="text6238"
       y="186.78825"
       x="286.04492"
       style="font-style:normal;font-variant:normal;font-weight:normal;font-stretch:normal;font-size:14.11111069px;line-height:1.25;font-family:Maitree;-inkscape-font-specification:Maitree;text-align:center;letter-spacing:0px;word-spacing:0px;text-anchor:middle;fill:#000000;fill-opacity:1;stroke:none;stroke-width:0.26458332"
       xml:space="preserve"><tspan
         style="text-align:center;text-anchor:middle;stroke-width:0.26458332"
         y="186.78825"
         x="286.04492"
         id="tspan6236"
         sodipodi:role="line">6</tspan></text>
    <text
       xml:space="preserve"
       style="font-style:normal;font-variant:normal;font-weight:normal;font-stretch:normal;font-size:14.11111069px;line-height:1.25;font-family:Maitree;-inkscape-font-specification:Maitree;text-align:center;letter-spacing:0px;word-spacing:0px;text-anchor:middle;fill:#000000;fill-opacity:1;stroke:none;stroke-width:0.26458332"
       x="335.84201"
       y="186.78825"
       id="text6242"><tspan
         sodipodi:role="line"
         id="tspan6240"
         x="335.84201"
         y="186.78825"
         style="text-align:center;text-anchor:middle;stroke-width:0.26458332">7</tspan></text>
  </g>
</svg>
